[
1,3
3,2
4,2
5,1
5,2
2,3
2,4
2,7
2,10
2,11
1,10
3,11
4,11
6,12
6,9
5,8
7,10
8,1
7,3
10,5
10,9
10,10
10,11
10,12
10,12
9,12
11,12
12,13
13,13
12,6
12,7
12,8
14,9
15,9
17,8
16,11
18,12
19,12
20,12
8,8
12,1
14,2
15,2
16,4
17,4
16,5
16,6
17,8
19,1
20,6
20,7
21,7
20,9
22,10
23,10
25,8
25,6
25,5
24,1
24,2
28,1
28,13
26,13
27,12
27,11
22,4
22,5
]

// Array of copy of coordinates [ x,y ... x,y ]

